<svg width="200mm" height="42.851mm" version="1.1" viewBox="0 0 200 42.851" xmlns="http://www.w3.org/2000/svg">
 <g transform="translate(119 -21.188)">
  <path d="m-30.644 63.9c-7.3473-0.78685-12.791-3.841-14.991-8.4109-0.68325-1.4191-1.2788-3.7987-1.2788-5.1094v-1.0738h9.7392l0.1525 0.93865c0.42066 2.5892 1.6443 4.3196 3.8282 5.4136 1.8041 0.90378 3.6792 1.2538 6.5549 1.2236 4.8799-0.05128 8.0368-1.7027 8.2618-4.3219 0.12294-1.4316-0.04151-2.0304-0.79264-2.8859-1.4238-1.6216-3.0096-2.2266-10.185-3.8855-5.4873-1.2687-8.3197-2.179-10.401-3.3429-4.2393-2.3708-6.2165-6.238-5.4562-10.672 0.40489-2.3611 1.3062-4.0459 3.1485-5.8855 1.7791-1.7764 4.6409-3.3062 7.7897-4.1641 1.7107-0.46604 2.6407-0.54405 6.3828-0.53539 3.8822 0.0085 4.6542 0.08287 6.7885 0.64954 6.8446 1.8173 10.405 5.3553 11.116 11.046l0.17529 1.403h-10.07l-0.0055-0.68835c-0.0077-0.95784-0.79528-2.5621-1.6525-3.3657-0.39595-0.37121-1.2831-0.93439-1.9714-1.2515-1.1176-0.51489-1.6266-0.57661-4.7558-0.57661-3.9592 0-4.8323 0.27475-6.3439 1.9964-0.69123 0.78727-0.7898 1.08-0.7898 2.3455 0 1.5912 0.37315 2.2039 1.7879 2.9355 0.79885 0.4131 2.5608 1.0849 3.2183 1.2271 13.046 2.8217 16.109 3.9209 19.003 6.8199 2.1387 2.1425 2.8323 3.7611 2.8721 6.7025 0.034228 2.5311-0.17862 3.6103-1.1021 5.588-2.3306 4.9909-9.4847 8.1737-18.013 8.0136-1.1738-0.02204-2.5284-0.0823-3.0102-0.13387zm-51.139-0.98716c-0.11011-0.11011-0.84194-0.20366-1.6263-0.20789-1.4135-0.0076-1.4262-0.01429-1.4352-0.75773-0.0076-0.63127-0.12655-0.77138-0.75092-0.88489-0.62035-0.11277-0.73431-0.24479-0.69584-0.80615 0.03992-0.58226-0.07067-0.69317-0.83348-0.83628-0.48371-0.09072-0.94161-0.32691-1.0175-0.52481-0.31911-0.83158 0.42163-1.5614 2.7324-2.692 2.115-1.0349 2.2469-1.1394 1.4505-1.1492-1.79-0.02214-3.4429-0.17377-3.713-0.34071-0.15315-0.09465-0.46555-0.56636-0.6942-1.0482-0.40038-0.84373-0.396-0.89715 0.11845-1.4448 0.29381-0.31274 0.5342-0.75634 0.5342-0.98576 0-0.68409 1.1085-0.77353 5.4924-0.4431 5.3283 0.4016 8.5227 0.0245 9.8325-1.1608 0.58404-0.52856 0.33888-0.8252-0.68198-0.8252-1.2883 0-1.2949-0.43384-0.0246-1.6168l1.1559-1.0764-1.386-0.56256c-0.76233-0.3094-1.6198-0.85796-1.9056-1.219-0.47643-0.60199-0.50533-0.85932-0.34821-3.101 0.154-2.1971 0.11684-2.5572-0.36707-3.5568-0.42399-0.87583-0.53079-1.5266-0.50258-3.0622 0.01968-1.0725-0.04077-2.4308-0.13444-3.0184-0.10252-0.6434-0.06442-1.1961 0.0958-1.3891 0.14633-0.17632 0.34212-0.7962 0.43507-1.3775 0.093-0.58131 0.25613-1.1108 0.36262-1.1766 0.10648-0.06584 0.13389-0.56481 0.06092-1.1089-0.16538-1.233 0.06821-1.9762 0.4889-1.5556 0.4126 0.41259 1.1819 0.36278 1.3548-0.0877 0.08013-0.20894 0.33007-0.34974 0.55533-0.31288 0.33628 0.05506 0.40209-0.14821 0.36784-1.1359-0.02677-0.77203 0.05591-1.1703 0.23082-1.112 0.14991 0.04995 0.8295 1.0981 1.5102 2.3292 0.6807 1.2311 2.1993 3.5855 3.3747 5.2319 2.3365 3.2729 3.9089 6.0156 4.4968 7.8438 0.20825 0.64757 0.45038 2.668 0.53807 4.4899 0.19216 3.992 0.28866 4.1395 3.3232 5.0766 1.4795 0.45693 2.1765 0.81419 2.5411 1.3026 0.49237 0.65947 0.49359 0.70566 0.06083 2.3045l-0.44163 1.6315-0.81122-0.61875c-0.99038-0.7554-1.5104-0.77974-2.0805-0.09738-0.23958 0.28676-0.99878 0.80932-1.6871 1.1612-1.325 0.67745-3.6934 2.4149-4.4676 3.2774-0.45231 0.50393-0.4481 0.53461 0.18773 1.3682 0.68346 0.89606 0.80453 1.5564 0.40012 2.1822-0.1884 0.29153-0.2435 0.21829-0.24647-0.32766-0.0019-0.38671-0.1034-0.64157-0.22509-0.56636s-0.36123-0.20118-0.5323-0.61418c-0.33139-0.80004-1.1165-1.1455-2.0624-0.90735-0.30975 0.07795-1.2953 0.77526-2.1902 1.5495-1.6613 1.4375-3.4421 2.4106-5.0061 2.7356-0.48184 0.10013-1.1013 0.32248-1.3767 0.49412-0.27534 0.17165-1.0075 0.39539-1.627 0.49719-0.6195 0.10181-1.4646 0.24098-1.878 0.30928-0.41339 0.0683-0.84171 0.03406-0.95181-0.07606zm24.275-12.756c0.19196-0.50026-0.41686-0.91454-0.83455-0.56789-0.37876 0.31434-0.15974 0.9686 0.32424 0.9686 0.1961 0 0.42573-0.18032 0.5103-0.40071zm54.898-7.611v-20.551l13.204 0.08732c12.67 0.08382 13.283 0.10943 15.162 0.63444 3.5656 0.99606 5.818 2.7034 7.0105 5.3139 0.72639 1.5901 0.88641 5.4701 0.29858 7.2398-0.56934 1.7141-2.0027 3.457-3.7211 4.5245-0.77557 0.48184-1.4116 0.93411-1.4133 1.0051-0.0018 0.07095 0.55025 0.32554 1.2267 0.56578 0.67642 0.24024 1.8082 0.8714 2.5151 1.4026 2.4813 1.8644 3.731 4.2907 3.9478 7.6646 0.37637 5.8588-3.1718 10.154-9.9455 12.039-1.4557 0.40516-3.0302 0.46193-14.956 0.53922l-13.329 0.08637zm24.309 13.051c1.1531-0.36705 2.4165-1.2255 3.037-2.0634 0.73454-0.99196 0.94878-3.4685 0.43207-4.9948-0.51173-1.5116-0.99714-2.0708-2.3779-2.7392-1.6325-0.79027-1.8095-0.80926-8.6924-0.93241l-6.4454-0.11532v11.362l6.5705-0.11416c3.9364-0.0684 6.9336-0.22971 7.476-0.4024zm-0.27975-17.804c2.6584-1.4769 3.0589-5.5748 0.7149-7.3165-1.5162-1.1266-2.2792-1.2501-8.537-1.3816l-5.9448-0.12493v9.6051l6.3202-0.07824c6.204-0.07672 6.3409-0.08969 7.4466-0.70397zm20.775 4.7558v-20.525h10.196l0.63886 0.93865c0.95854 1.4083 6.56 9.5263 14.897 21.589 1.5699 2.2715 3.0118 4.295 3.2043 4.4966 0.29998 0.31415 0.34999-1.5903 0.34999-13.329v-13.695h9.5172l-0.0084 20.53-0.0084 20.53-10.368-0.13528-3.1331-4.5483c-1.7233-2.5016-5.8928-8.5538-9.2657-13.449-3.3729-4.8956-6.217-8.9031-6.3202-8.9056-0.10325-0.002838-0.18773 6.0779-0.18773 13.512v13.517h-9.5117zm-161.2 17.415c0-0.14848 3.7161-2.6273 29.382-19.599 4.6647-3.0846 8.3817-5.6963 8.2601-5.8038-0.12165-0.10751-2.7296-0.85379-5.7953-1.6584-3.0658-0.80462-5.5405-1.5639-5.4994-1.6873 0.04115-0.12342 0.63467-0.53744 1.319-0.92004 0.68429-0.38261 2.3364-1.3301 3.6714-2.1055 1.335-0.77541 2.557-1.4098 2.7157-1.4098 0.15865 0 2.1358 0.35347 4.3936 0.7855 3.1001 0.59319 4.1052 0.87605 4.1052 1.1554 0 0.20343-0.19095 0.90751-0.42434 1.5646-0.3804 1.071-0.38642 1.2949-0.05809 2.1612 0.27462 0.7247 0.30877 1.2579 0.13653 2.1316-0.18183 0.92234-0.13653 1.4179 0.21733 2.3779 0.24587 0.66701 0.49728 1.9089 0.55871 2.7598l0.11167 1.547-1.1066 0.83087c-3.4212 2.5688-6.0837 4.6007-6.1935 4.7266-0.06887 0.07899-3.9548 3.0654-8.6356 6.6365l-8.5104 6.4928-9.3239 0.08836c-5.1282 0.04863-9.3239 0.01523-9.3239-0.07408zm57.064-14.553c-0.13426-0.35313-0.24412-1.4569-0.24412-2.4528v-1.8107l0.82639-0.29882c0.45452-0.16436 1.4281-0.81246 2.1636-1.4402 1.3456-1.1486 2.6107-1.8982 3.7683-2.2327 0.34417-0.09947 1.3579-0.54722 2.2528-0.995 3.532-1.7675 6.2576-2.324 6.2576-1.2778 0 0.8877-0.53622 1.6111-1.5625 2.1079-0.60384 0.29232-1.6406 1.0775-2.304 1.7449-0.66334 0.66738-1.6135 1.3583-2.1115 1.5354-0.49798 0.17707-1.4356 0.81379-2.0836 1.415-0.64803 0.60117-1.4077 1.093-1.6881 1.093-0.28043 0-1.0263 0.50913-1.6575 1.1314-0.97355 0.95976-2.744 2.1226-3.2318 2.1226-0.07776 0-0.25116-0.28892-0.38543-0.64206zm-0.57537-6.3039c-0.06074-0.10325-0.19356-0.58196-0.2951-1.0638-0.4193-1.9897-2.2704-5.211-5.6978-9.9154l-0.93242-1.2798 6.1643-4.0833 11.195 0.1349-5.178 3.9689c-2.8479 2.1829-5.2352 4.0615-5.3051 4.1746-0.1676 0.27119 0.02526 0.32255 5.1222 1.3646 2.4013 0.49094 4.4052 0.93179 4.4531 0.97968 0.07559 0.07559-3.6545 2.4819-5.0645 3.2672-0.27534 0.15334-1.3184 0.81008-2.3179 1.4594-1.9461 1.2643-1.9756 1.278-2.1434 0.9929z" fill="#fff" stroke-width=".25031"/>
 </g>
</svg>
