<svg width="112.38mm" height="46.242mm" version="1.1" viewBox="0 0 112.38 46.242" xmlns="http://www.w3.org/2000/svg">
 <g transform="translate(-60.353 -116.58)">
  <g transform="matrix(.64283 0 0 .64283 66.619 47.058)">
   <path d="m24.305 132.7v-11.83s0.05546-2.8787 1.5015-3.2567c1.3124-0.71207 3.3569 0.48966 3.3569 0.48966l40.414 23.437c0.01704-9e-3 1.3407 0.84229 1.4746 2.4425 0.07873 0.94121-1.4566 2.2468-1.4566 2.2468l-39.855 23.067s-3.2013 1.5797-3.9019 0.94592c-0.93446-0.16606-1.467-2.1467-1.467-2.1467l-0.16704-10.072h-7.1819v13.662s0.1998 6.2814 3.5692 7.7828c3.0019 1.5014 6.8819-0.19947 6.8819-0.19947l49.459-28.426s4.4574-3.0801 4.6464-6.8599c0.18899-3.7798-4.3697-6.3474-4.3697-6.3474l-48.469-27.992s-4.0585-2.3127-7.6493-1.1788-4.0683 7.3723-4.0683 7.3723v16.863z" fill="#9b1931"/>
   <g transform="scale(1.002 .99801)" fill="#2e3f47" stroke-width=".23611" style="font-feature-settings:normal;font-variant-caps:normal;font-variant-ligatures:normal;font-variant-numeric:normal" aria-label="TVPLAY">
    <path d="m0.85571 141.91h-3.7454v9.6736h-3.093v-9.6736h-3.7454v-2.3197h10.584z"/>
    <path d="m14.118 139.59-4.3737 11.993h-3.4635l-4.3737-11.993h3.246l2.8997 8.4252 2.8997-8.4252z"/>
    <path d="m26.269 143.37q0 0.80546-0.28191 1.5787-0.28191 0.76519-0.80546 1.2887-0.71686 0.70881-1.6029 1.0713-0.87796 0.36245-2.1909 0.36245h-1.9251v3.9065h-3.093v-11.993h5.0905q1.1438 0 1.9251 0.20136 0.78935 0.19331 1.3935 0.58799 0.72492 0.47523 1.1035 1.2162 0.38662 0.74103 0.38662 1.7801zm-3.1977 0.0725q0-0.50744-0.27386-0.8699-0.27386-0.37052-0.63632-0.5155-0.48328-0.19331-0.94239-0.20942-0.45911-0.0242-1.2243-0.0242h-0.53161v3.5924h0.88601q0.78936 0 1.2968-0.0967 0.5155-0.0967 0.86185-0.38662 0.29802-0.25775 0.4269-0.61216 0.13693-0.36245 0.13693-0.87795z"/>
    <path d="m36.575 151.58h-8.6507v-11.993h3.093v9.6736h5.5577z"/>
    <path d="m50.567 151.58h-3.1977l-0.82963-2.4244h-4.4462l-0.82963 2.4244h-3.1171l4.4301-11.993h3.5602zm-4.7764-4.6234-1.474-4.3012-1.474 4.3012z"/>
    <path d="m60.217 139.59-4.422 7.3539v4.6395h-3.093v-4.4945l-4.4945-7.4989h3.5118l2.5936 4.6395 2.505-4.6395z"/>
   </g>
   <path d="m78.081 133.91s9.0479 4.6041 8.1517 11.359c-0.73722 5.557-10.424 10.958-10.424 10.958l89.134 0.26727 0.13363-22.317z" fill="#0f1821"/>
  </g>
  <g transform="matrix(.64283 0 0 .64283 60.544 116.43)">
   <g transform="scale(1.0024 .99759)" fill="#fff" stroke-width=".23283" style="font-feature-settings:normal;font-variant-caps:normal;font-variant-ligatures:normal;font-variant-numeric:normal" aria-label="SPORTS">
    <path d="m102.5 39.729q0.13827 0.11386 0.34973 0.30906 0.2196 0.18706 0.49613 0.37413 0.41479 0.27653 0.82145 0.43106t0.85399 0.15453q0.41479 0 0.69132-0.08947 0.28467-0.0976 0.44733-0.25213t0.22773-0.35786q0.0732-0.20333 0.0732-0.43106 0-0.25213-0.1952-0.44733-0.18706-0.20333-0.46359-0.35786t-0.57746-0.26026q-0.30093-0.11386-0.52052-0.18706-0.97599-0.3416-1.708-0.73199-0.73199-0.39853-1.22-0.87839-0.48799-0.48799-0.73199-1.0655-0.244-0.58559-0.244-1.3013 0-0.75639 0.30093-1.3745 0.30906-0.61812 0.87026-1.0573 0.56932-0.43919 1.3664-0.67506 0.79705-0.244 1.7812-0.244 0.74012 0 1.4152 0.1708 0.68319 0.16266 1.342 0.52866 0.27653 0.16266 0.52052 0.3416 0.25213 0.1708 0.4392 0.33346 0.18706 0.16266 0.29279 0.30906 0.11387 0.1464 0.11387 0.25213t-0.0569 0.1952q-0.0488 0.08946-0.15454 0.20333l-1.2444 1.3257q-0.13826 0.13826-0.27653 0.13826-0.11386 0-0.21146-0.06507-0.0895-0.06507-0.20333-0.16266l-0.0732-0.06507q-0.16266-0.13826-0.36599-0.28466-0.1952-0.1464-0.42293-0.26026-0.22773-0.122-0.47986-0.1952-0.25213-0.08133-0.51239-0.08133-0.2684 0-0.50426 0.0488-0.23587 0.04067-0.4148 0.13826-0.17893 0.0976-0.28466 0.26026-0.10573 0.15453-0.10573 0.38226t0.11386 0.39853q0.11387 0.16266 0.3416 0.30906 0.22773 0.13826 0.56119 0.2684 0.3416 0.122 0.78892 0.2684 0.86212 0.28466 1.586 0.60186 0.73199 0.30906 1.2606 0.74012 0.52866 0.42293 0.82145 1.0167 0.30093 0.59372 0.30093 1.4396 0 0.89465-0.36599 1.6266-0.366 0.72386-1.0085 1.2362-0.63439 0.51239-1.4965 0.79706-0.86212 0.27653-1.8544 0.27653-0.93532 0-1.8381-0.33346-0.90279-0.33346-1.6836-0.89465-0.32533-0.23586-0.55306-0.46359-0.21959-0.22773-0.34972-0.366l-0.0244-0.0244q-8e-3 -0.01627-0.0163-0.01627-8e-3 -0.0081-0.0163-0.01627-8e-3 -0.01627-0.0163-0.01627-8e-3 -0.0081-0.0163-0.01627-0.18706-0.20333-0.18706-0.32533 0-0.13826 0.18706-0.30906l1.407-1.342q0.17079-0.122 0.27653-0.122 0.0732 0 0.15453 0.0488 0.0813 0.0488 0.19519 0.1464z"/>
    <path d="m111.26 31.921q0-0.1708 0.0895-0.2684 0.0895-0.10573 0.2684-0.10573h5.1971q0.5612 0 1.0573 0.15453 0.49613 0.15453 0.91092 0.43106 0.4148 0.2684 0.74826 0.65066 0.33346 0.37413 0.56119 0.81332 0.23586 0.43919 0.35786 0.92719 0.122 0.47986 0.122 0.97599 0 0.73199-0.2684 1.4314-0.26026 0.69946-0.74825 1.2444-0.488 0.54492-1.1712 0.88652-0.68319 0.33346-1.5128 0.3416h-2.4644v3.8714q0 0.34973-0.37412 0.34973h-2.4156q-0.16266 0-0.26026-0.08133-0.0976-0.08946-0.0976-0.2684zm6.1243 3.5623q0-0.244-0.0895-0.48799-0.0813-0.244-0.24399-0.43106-0.16267-0.1952-0.39853-0.3172-0.22773-0.122-0.52053-0.122h-1.7242v2.7165h1.7242q0.2928 0 0.52866-0.11386 0.23587-0.122 0.3904-0.30906 0.16266-0.18706 0.24399-0.43106 0.0895-0.244 0.0895-0.50426z"/>
    <path d="m124.78 37.59q0 0.67506 0.22773 1.2606 0.22773 0.58559 0.63439 1.0248 0.41479 0.43106 0.97598 0.68319 0.5612 0.244 1.2362 0.244 0.67506 0 1.2362-0.244 0.56933-0.25213 0.97599-0.68319 0.41479-0.43919 0.64252-1.0248 0.22773-0.58559 0.22773-1.2606 0-0.66692-0.22773-1.2525-0.22773-0.59372-0.64252-1.0329-0.40666-0.43919-0.97599-0.69132-0.56119-0.25213-1.2362-0.25213-0.67505 0-1.2362 0.25213-0.56119 0.25213-0.97598 0.69132-0.40666 0.43919-0.63439 1.0329-0.22773 0.58559-0.22773 1.2525zm-3.1394 0.0081q0-0.86212 0.21959-1.651 0.2196-0.79706 0.62626-1.4884 0.40666-0.69946 0.96785-1.2688 0.56933-0.56932 1.2606-0.96785 0.69133-0.40666 1.4802-0.62626 0.79705-0.22773 1.6592-0.22773 0.85399 0 1.651 0.22773 0.79706 0.2196 1.4884 0.62626 0.69133 0.39853 1.2606 0.96785 0.56933 0.56932 0.96785 1.2688 0.40666 0.69132 0.62626 1.4884 0.22773 0.78892 0.22773 1.651 0 0.86212-0.22773 1.6592-0.2196 0.78892-0.62626 1.4802-0.39852 0.68319-0.96785 1.2525-0.56932 0.56119-1.2606 0.96785-0.69132 0.40666-1.4884 0.62626-0.79705 0.2196-1.651 0.2196-0.86212 0-1.6592-0.2196-0.78892-0.2196-1.4802-0.62626-0.69132-0.40666-1.2606-0.96785-0.56119-0.56932-0.96785-1.2525-0.40666-0.69132-0.62626-1.4802-0.21959-0.79706-0.21959-1.6592z"/>
    <path d="m135.73 31.921q0-0.1708 0.0895-0.2684 0.0895-0.10573 0.2684-0.10573h5.2541q0.83772 0 1.5697 0.3172 0.73198 0.30906 1.2769 0.84585t0.85399 1.2606q0.31719 0.71572 0.31719 1.529 0 0.55306-0.15453 1.0573-0.1464 0.49613-0.41479 0.93532-0.2684 0.43106-0.64253 0.78892-0.36599 0.34973-0.80518 0.60186l2.0902 3.9365q0.0569 0.11386 0.1464 0.2684t0.0895 0.2684q0 0.13013-0.0895 0.20333-0.0813 0.06506-0.22773 0.06506h-2.7897q-0.13827 0-0.25213-0.08133-0.10573-0.08133-0.13827-0.2196l-1.9764-3.7169h-1.3176v3.6681q0 0.34973-0.37413 0.34973h-2.4156q-0.16266 0-0.26026-0.08133-0.0976-0.08946-0.0976-0.2684zm6.3683 3.6111q0-0.244-0.0895-0.48799-0.0895-0.244-0.25213-0.44733-0.16267-0.20333-0.3904-0.3416t-0.50425-0.17893q-0.22773-0.01627-0.43106-0.0244-0.1952-0.01627-0.43107-0.01627h-1.1224v2.9849h1.4965q0.1464 0 0.26027-0.0081 0.11386-0.0081 0.25213-0.0244 0.28466-0.03253 0.51239-0.16266 0.22773-0.13826 0.38226-0.33346 0.15453-0.20333 0.23586-0.44733 0.0813-0.25213 0.0813-0.51239z"/>
    <path d="m146.75 31.904q0-0.16266 0.10573-0.26026 0.11387-0.0976 0.27653-0.0976h8.7595q0.1464 0 0.26026 0.08947 0.11387 0.08947 0.13013 0.2684v2.0252q0 0.1464-0.10573 0.28466-0.0976 0.13013-0.28466 0.13013h-2.806v8.8977q0 0.1464-0.10573 0.2684-0.10573 0.11386-0.27653 0.11386h-2.3912q-0.13827 0-0.26027-0.10573-0.12199-0.11386-0.12199-0.27653v-8.8977h-2.7978q-0.16266 0-0.27653-0.10573-0.10573-0.10573-0.10573-0.30906z"/>
    <path d="m160.53 39.729q0.13826 0.11386 0.34972 0.30906 0.2196 0.18706 0.49613 0.37413 0.41479 0.27653 0.82145 0.43106 0.40667 0.15453 0.85399 0.15453 0.4148 0 0.69133-0.08947 0.28466-0.0976 0.44732-0.25213 0.16267-0.15453 0.22773-0.35786 0.0732-0.20333 0.0732-0.43106 0-0.25213-0.1952-0.44733-0.18706-0.20333-0.46359-0.35786t-0.57746-0.26026q-0.30093-0.11386-0.52052-0.18706-0.97599-0.3416-1.708-0.73199-0.73199-0.39853-1.22-0.87839-0.48799-0.48799-0.73199-1.0655-0.244-0.58559-0.244-1.3013 0-0.75639 0.30093-1.3745 0.30907-0.61812 0.87026-1.0573 0.56932-0.43919 1.3664-0.67506 0.79705-0.244 1.7812-0.244 0.74012 0 1.4152 0.1708 0.68319 0.16266 1.342 0.52866 0.27653 0.16266 0.52053 0.3416 0.25213 0.1708 0.43919 0.33346t0.29279 0.30906q0.11387 0.1464 0.11387 0.25213t-0.0569 0.1952q-0.0488 0.08946-0.15453 0.20333l-1.2444 1.3257q-0.13826 0.13826-0.27652 0.13826-0.11387 0-0.21147-0.06507-0.0895-0.06507-0.20333-0.16266l-0.0732-0.06507q-0.16266-0.13826-0.36599-0.28466-0.1952-0.1464-0.42293-0.26026-0.22773-0.122-0.47986-0.1952-0.25213-0.08133-0.51239-0.08133-0.2684 0-0.50426 0.0488-0.23586 0.04067-0.41479 0.13826-0.17893 0.0976-0.28467 0.26026-0.10573 0.15453-0.10573 0.38226t0.11387 0.39853q0.11386 0.16266 0.34159 0.30906 0.22773 0.13826 0.56119 0.2684 0.3416 0.122 0.78893 0.2684 0.86212 0.28466 1.586 0.60186 0.73199 0.30906 1.2606 0.74012 0.52866 0.42293 0.82145 1.0167 0.30093 0.59372 0.30093 1.4396 0 0.89465-0.36599 1.6266-0.366 0.72386-1.0085 1.2362-0.63439 0.51239-1.4965 0.79706-0.86212 0.27653-1.8544 0.27653-0.93532 0-1.8381-0.33346-0.90279-0.33346-1.6836-0.89465-0.32532-0.23586-0.55305-0.46359-0.2196-0.22773-0.34973-0.366l-0.0244-0.0244q-8e-3 -0.01627-0.0163-0.01627-8e-3 -0.0081-0.0163-0.01627-8e-3 -0.01627-0.0163-0.01627-8e-3 -0.0081-0.0163-0.01627-0.18706-0.20333-0.18706-0.32533 0-0.13826 0.18706-0.30906l1.407-1.342q0.1708-0.122 0.27653-0.122 0.0732 0 0.15453 0.0488 0.0813 0.0488 0.1952 0.1464z"/>
   </g>
  </g>
 </g>
</svg>
